Build Panel Data from a DGP — buildDGP • gridsearch
…
set.seed(11235)
data <- buildDGP(n = 100,
                 t = 3,
                 rate = 0.5,
                 balance_dir = 0.5,
                 balance_res = 0.5,
                 strength = 1,
                 reliable = 0.9,
                 export = TRUE,
                 patterns = TRUE,
                 slopes = FALSE)
print(data)
#> $data
#> # A tibble: 300 x 6
#>      pid changer timing     t   y_true y_obs
#>    <int>   <int>  <dbl> <dbl>    <dbl> <dbl>
#>  1     1       1    0.5   0   -0.297       0
#>  2     1       1    0.5   0.5 -1.30        0
#>  3     1       1    0.5   1   -1.30        0
#>  4     2       0    0     0   -1.42        0
#>  5     2       0    0     0.5 -1.42        0
#>  6     2       0    0     1   -1.42        0
#>  7     3       0    0     0   -0.216       0
#>  8     3       0    0     0.5 -0.216       0
#>  9     3       0    0     1   -0.216       0
#> 10     4       0    0     0   -0.00588     0
#> # i 290 more rows
…
