Grid Search for Adjudicating DGPs — gridSearch • gridsearch
…
           pattern = 'contingency',
           steps = 1,
           reliability = 0.9,
           seed = 11234,
           workers = 10)
#> This function drops missing values. Tread carefully.
#>
#>  We now start the calculations. There will be 3 steps.
#>
#>  Step 1 for grid search...
#>
#>  Step 2 for grid search...
#>
#>  Step 3 for grid search...
#> # A tibble: 8,200 x 6
#>     rate strength direction       error pattern         n
#>    <dbl>    <dbl> <fct>           <dbl> <chr>       <int>
#>  1     0     0.05 100% Down        23.0 contingency    50
#>  2     0     0.05 75% Down-25% Up  23.8 contingency    50
#>  3     0     0.05 50% Down-50% Up  22.7 contingency    50
#>  4     0     0.05 25% Down-75% Up  24.0 contingency    50
#>  5     0     0.05 100% Up          24.4 contingency    50
#>  6     0     0.1  100% Down        23.1 contingency    50
#>  7     0     0.1  75% Down-25% Up  23.9 contingency    50
#>  8     0     0.1  50% Down-50% Up  22.8 contingency    50
#>  9     0     0.1  25% Down-75% Up  23.8 contingency    50
#> 10     0     0.1  100% Up          24.2 contingency    50
#> # i 8,190 more rows
…
