Using the gridsearch Package • gridsearch
…
print(grid)
#> # A tibble: 8,200 × 6
#>     rate strength direction       error pattern         n
#>    <dbl>    <dbl> <fct>           <dbl> <chr>       <int>
#>  1     0     0.05 100% Down        286. contingency  1000
#>  2     0     0.05 75% Down-25% Up  292. contingency  1000
#>  3     0     0.05 50% Down-50% Up  286. contingency  1000
#>  4     0     0.05 25% Down-75% Up  284. contingency  1000
#>  5     0     0.05 100% Up          292. contingency  1000
#>  6     0     0.1  100% Down        286. contingency  1000
#>  7     0     0.1  75% Down-25% Up  292. contingency  1000
#>  8     0     0.1  50% Down-50% Up  286. contingency  1000
#>  9     0     0.1  25% Down-75% Up  285. contingency  1000
#> 10     0     0.1  100% Up          292. contingency  1000
#> # ℹ 8,190 more rows
…
pattern represents the calculation method (see
below),

n shows the unique number of individuals from the
empirical dataset.

Evaluating the Potential DGPs

Let’s look at the error scores that minimize the distance:

grid |> arrange(error)
#> # A tibble: 8,200 × 6
#>     rate strength direction error pattern         n
#>    <dbl>    <dbl> <fct>     <dbl> <chr>       <int>
#>  1 0.525     1.05 100% Up    68.0 contingency  1000
#>  2 0.55      1.05 100% Up    68.7 contingency  1000
#>  3 0.55      1    100% Up    68.8 contingency  1000
#>  4 0.5       1.1  100% Up    69.2 contingency  1000
#>  5 0.525     1.1  100% Up    69.3 contingency  1000
#>  6 0.5       1.05 100% Up    69.4 contingency  1000
#>  7 0.525     1    100% Up    69.5 contingency  1000
#>  8 0.575     1    100% Up    69.8 contingency  1000
#>  9 0.575     1.05 100% Up    71.3 contingency  1000
#> 10 0.5       1.15 100% Up    71.3 contingency  1000
#> # ℹ 8,190 more rows
…
In this approach, people can use the slopes option,
which estimates logistic regressions at the individual level—effectively
fitting varying individual fixed effects models—and calculates the model
predicted difference between units’ first response and last response.
This gives us an approximation as to how much individuals changed over
time, on average.

These slopes are represented for each individual in the
dataframe:

d$slopes
#> # A tibble: 1,000 × 2
#>      pid estimate
#>    <int>    <dbl>
#>  1     1        0
#>  2     2        0
#>  3     3        0
#>  4     4        0
#>  5     5        0
#>  6     6        1
#>  7     7       -1
#>  8     8        0
#>  9     9        1
#> 10    10        1
#> # ℹ 990 more rows
…
print(sim)
#> # A tibble: 500 × 4
#>     sims  kappa sensitivity specificity
#>    <int>  <dbl>       <dbl>       <dbl>
#>  1     1 0.113        0.321       0.792
#>  2     2 0.0547       0.282       0.771
#>  3     3 0.189        0.388       0.802
#>  4     4 0.147        0.355       0.792
#>  5     5 0.141        0.367       0.774
#>  6     6 0.154        0.370       0.785
#>  7     7 0.102        0.331       0.773
#>  8     8 0.128        0.330       0.793
#>  9     9 0.173        0.395       0.783
#> 10    10 0.174        0.400       0.775
#> # ℹ 490 more rows
…
